Fit a BART model
…
Gridsearch

It is now time to perform the gridsearch to find the best hyperparameters for our model. We first need to define a grid with the hyperparameters we want to try. We use grid_latin_hypercube to generate a space-filling grid of size 30.

bart_grid <- grid_latin_hypercube(
  trees(),
  prior_terminal_node_coef(),
  prior_terminal_node_expo(),
  size = 30
)
bart_grid

# A tibble: 30 × 3
   trees prior_terminal_node_coef prior_terminal_node_expo
   <int>                    <dbl>                    <dbl>
 1   842                  0.908                       1.60
 2  1902                  0.835                       1.15
 3   470                  0.502                       1.00
 4   940                  0.484                       1.46
 5  1657                  0.00389                     2.05
 6   696                  0.576                       2.00
 7   932                  0.974                       2.31
 8   639                  0.212                       1.92
 9  1779                  0.196                       2.81
10   332                  0.617                       2.97
# ℹ 20 more rows
…
