Fit a XGBoost model
…
It is now time to perform the gridsearch to find the best hyperparameters for our model. We first need to define a grid with the hyperparameters we want to try. We use grid_latin_hypercube to generate a space-filling grid of size 30.

xgb_grid <- grid_latin_hypercube(
  trees(),
  learn_rate(),
  tree_depth(),
  min_n(),
  #loss_reduction(),
  #sample_size = sample_prop(),
  #finalize(mtry(), df_train),
  size = 30
)
xgb_grid

# A tibble: 30 × 4
   trees learn_rate tree_depth min_n
   <int>      <dbl>      <int> <int>
 1  1492   9.29e- 6          6    35
 2  1681   7.70e- 9          1    10
 3   375   2.07e- 8         10     6
 4   645   3.28e- 9          2     3
 5   735   2.49e- 7         15    20
 6  1643   2.79e- 6          6    14
 7  1818   4.70e- 4         11    32
 8  1136   1.31e- 3          3    12
 9   954   8.32e-10          5    19
10   847   1.47e- 4         13    15
# ℹ 20 more rows
…
