Compute POC anomalies
…
It is now time to perform the gridsearch to find the best hyperparameters for our model. We first need to define a grid with the hyperparameters we want to try. We use grid_latin_hypercube to generate a space-filling grid of size 30.

xgb_grid <- grid_latin_hypercube(
  trees(),
  learn_rate(),
  tree_depth(),
  min_n(),
  #loss_reduction(),
  #sample_size = sample_prop(),
  #finalize(mtry(), df_train),
  size = 30
)
xgb_grid

# A tibble: 30 × 4
   trees learn_rate tree_depth min_n
   <int>      <dbl>      <int> <int>
 1  1907   8.82e- 5         11    39
 2  1105   1.92e- 5         11    24
 3  1570   6.97e- 6          8    30
 4  1517   5.56e- 7         13    20
 5  1308   1.21e- 3          2     5
 6    40   2.32e- 9          4     3
 7  1644   4.79e- 8          7    27
 8   956   2.25e-10         10    20
 9   792   1.46e- 9          3    25
10    91   3.11e- 4         15    29
# ℹ 20 more rows
…
