Predict POC values from plankton
…
It is now time to perform the gridsearch to find the best hyperparameters for our model. We first need to define a grid with the hyperparameters we want to try. We use grid_latin_hypercube to generate a space-filling grid of size 30.

xgb_grid <- grid_latin_hypercube(
  trees(),
  learn_rate(),
  tree_depth(),
  min_n(),
  #loss_reduction(),
  #sample_size = sample_prop(),
  #finalize(mtry(), df_train),
  size = 30
)
xgb_grid

# A tibble: 30 × 4
   trees   learn_rate tree_depth min_n
   <int>        <dbl>      <int> <int>
 1  1466 0.0170                4    22
 2   556 0.00000494            7    12
 3  1724 0.0122               10    37
 4  1477 0.0000137            14    40
 5  1187 0.000000673          11    25
 6   249 0.0000000859          9    19
 7   377 0.000000268          11    15
 8  1357 0.00411               8     3
 9  1582 0.00000925            5    16
10   873 0.00000149            6    30
# ℹ 20 more rows
…
