Plankton anomalies to POC anomalies
…
It is now time to perform the gridsearch to find the best hyperparameters for our model. We first need to define a grid with the hyperparameters we want to try. We use grid_latin_hypercube to generate a space-filling grid of size 30.

xgb_grid <- grid_latin_hypercube(
  trees(),
  learn_rate(),
  tree_depth(),
  min_n(),
  #loss_reduction(),
  #sample_size = sample_prop(),
  #finalize(mtry(), df_train),
  size = 30
)
xgb_grid

# A tibble: 30 × 4
   trees learn_rate tree_depth min_n
   <int>      <dbl>      <int> <int>
 1   293   2.06e- 8          7    14
 2   182   7.24e- 5         12    30
 3   567   1.87e- 2         14     5
 4  1243   1.22e- 4         12    12
 5   607   8.74e-10         11    39
 6  1462   3.88e- 2          5    15
 7  1172   2.46e- 9         10    18
 8  1845   1.06e- 3          9     3
 9  1882   9.57e- 6         13     3
10  1671   3.76e- 3          6    23
# ℹ 20 more rows
…
