Predict POC residuals from plankton residuals
…
It is now time to perform the gridsearch to find the best hyperparameters for our model. We first need to define a grid with the hyperparameters we want to try. We use grid_latin_hypercube to generate a space-filling grid of size 30.

xgb_grid <- grid_latin_hypercube(
  trees(),
  learn_rate(),
  tree_depth(),
  min_n(),
  #loss_reduction(),
  #sample_size = sample_prop(),
  #finalize(mtry(), df_train),
  size = 30
)
xgb_grid

# A tibble: 30 × 4
   trees learn_rate tree_depth min_n
   <int>      <dbl>      <int> <int>
 1  1304   3.55e- 7          4    35
 2  1698   4.11e- 5         14    29
 3  1607   4.37e-10          1    31
 4   861   3.82e- 4          2    16
 5   908   1.47e- 8         12    26
 6   234   8.20e- 8         14     9
 7   520   1.73e- 5          3    17
 8  1581   1.20e- 8          6    39
 9   321   2.30e-10          7    13
10   341   1.75e- 7          4    10
# ℹ 20 more rows
…
