Assemble POC, environmental and UVP data
…
Assemble env, UVP and carbon data

Since all three datasets use the same round coordinates, we can join them together. As a result, we will only get env and carbon data where UVP data is available.

df <- profiles %>%
  left_join(env,  by = join_by(lon, lat)) %>%
  left_join(df_c, by = join_by(lon, lat)) %>% 
  select(lon, lat, everything())

profiles

# A tibble: 173 × 37
     lon   lat    datetime abund biovol ta_ric_1 ta_ric_2 ta_ric_3 ta_div_1
   <dbl> <dbl>       <dbl> <dbl>  <dbl>    <dbl>    <dbl>    <dbl>    <dbl>
 1  -176   -24 1425987291.  16.3   77.7     6.33    1.92     1.58     1.56 
 2  -176   -16 1426118340.  11     53.6     5.5     1.88     1.66     1.44 
 3  -168   -16 1426679721.  16.4  130.      6.38    1.94     1.59     1.54 
 4  -168    72 1393899943.  28.1 2899.      4.5     1.05     0.851    1.02 
 5  -160   -16 1427770844.  15.5   74.5     5       1.46     1.27     1.00 
 6  -160    24 1244340142.  26.6  525.      7.41    1.98     1.47     1.58 
 7  -160    32 1317822553.  17.5  156.      6       1.79     1.48     1.44 
 8  -160    72 1390236859   20.5  109.      3       0.678    0.680    0.470
 9  -152   -16 1428770042   16.7   53.6     8.67    2.72     2.12     1.93 
10  -152    -8 1393993232.  30.8  333.      8.15    2.16     1.55     1.74 
# ℹ 163 more rows
# ℹ 28 more variables: ta_eve_1 <dbl>, ta_div_2 <dbl>, ta_div_3 <dbl>,
#   ta_eve_3 <dbl>, ta_mast <dbl>, ss_slope <dbl>, ss_inter <dbl>,
#   mo_size_mean <dbl>, mo_size_sd <dbl>, mo_grey_mean <dbl>, mo_grey_sd <dbl>,
#   mo_elon_mean <dbl>, mo_elon_sd <dbl>, mo_ghet_mean <dbl>, mo_ghet_sd <dbl>,
#   mo_dis <dbl>, mo_mpd <dbl>, mo_nnd <dbl>, mo_eve <dbl>, mo_ric <dbl>,
#   mo_div <dbl>, mo_ori <dbl>, mo_spe <dbl>, mo_ide_mo_dim1 <dbl>, …
…
